{
	"sizes": "Fine Diminutive Tiny Small Medium Large Huge Gargantuan Colossal",
	"creature_types": "Aberration Animal Construct Dragon Elemental Fey Giant Humanoid [[Magical Beast]] [[Monstrous Humanoid]] Ooze Outsider Plant Undead Vermin",
	"creature_subtypes": "Air Angel Aquatic Archon Augmented Chaotic Cold Earth Evil Extraplanar Fire Goblinoid Good Incorporeal Lawful Native Reptilian Shapechanger Swarm Water",
	"alignments": "[[Lawful Good]] [[Neutral Good]] [[Chaotic Good]] [[Lawful Neutral]] [[True Neutral]] [[Chaotic Neutral]] [[Lawful Evil]] [[Neutral Evil]] [[Chaotic Evil]] Unaligned",
	"conditions": "Blinded Charmed Deafened Exhaustion Frightened Grappled Incapacitated Invisible Paralyzed Petrified Poisoned Prone Restrained Stunned Unconscious",
	"save_types": "str_save int_save wis_save cha_save dex_save con_save",
	"player_species": "Human Dwarf [[Hill Dwarf]] Elf [[High Elf]] Halfling [[Lightfoot Halfling]] Dragonborn Gnome [[Rock Gnome]] Half-Elf Half-Orc Tiefling",
	"monster_species": "Skeleton",
	"common_languages": "Common Dwarvish Elvish Giant Gnomish Goblin Halfling Orc",
	"exotic_languages": "Abyssal Celestial Draconic Deep Speech Infernal Primordial Sylvan Undercommon",
	"character_class": "Barbarian Bard Cleric Druid Fighter Monk Paladin Ranger Rogue Sorcerer Warlock Wizard"
}